int drawable cordova 0x7f020000
int drawable icon 0x7f020001
int drawable icon24 0x7f020002
int drawable screen 0x7f020003
int string activity_name 0x7f040002
int string app_name 0x7f040000
int string launcher_name 0x7f040001
int xml config 0x7f030000
